"{\"traceId\":\"062f8684-cdd4-46b1-b0ed-40e19e11d5b7\",\"memberId\":\"524\",\"clientIp\":\"222.106.254.196\",\"url\":\"http://tr-sv-1:9090/api/v1/group/post\",\"method\":\"POST\",\"request\":\"{\\\"title\\\": \\\"\\\\ud2b8\\\\ub9ac\\\\ud50c \\\\ubc84\\\\ud37c \\\\uc6f9 \\\\uc0ac\\\\uc6a9 \\\\uac00\\\\ub2a5 \\\\uc778\\\\ucf54\\\\ub529\\\", \\\"content\\\": \\\"\\\\ub2e4\\\\uc591\\\\ud55c \\\\uad50\\\\ud6c8\\\\uc801 \\\\uc608\\\\uc0b0 \\\\uad00\\\\ub9ac \\\\uacf5\\\\uac1c \\\\ud0a4 \\\\ud574\\\\ub2f5 \\\\uae30\\\\ubc18 \\\\uc5d1\\\\uc2a4\\\\ud2b8\\\\ub77c\\\\ub137 \\\\ucd5c\\\\uc801\\\\ud654\\\\ub41c \\\\uc694\\\\uc57d \\\\uc544\\\\ud0a4\\\\ud14d\\\\uccd0 \\\\uacf5\\\\uac1c \\\\uc544\\\\ud0a4\\\\ud14d\\\\uccd0 \\\\ucde8\\\\uc57d\\\\uc810 \\\\ud504\\\\ub85c\\\\ud1a0\\\\ucf5c \\\\uc120\\\\ud0dd\\\\uc801 \\\\uc2e4\\\\uc2dc\\\\uac04 \\\\uc131\\\\uacf5\\\", \\\"type\\\": \\\"COMMON\\\"}\",\"response\":\"{\\\"message\\\":\\\"게시글 추가 완료\\\",\\\"postId\\\":1777,\\\"type\\\":\\\"COMMON\\\"}\",\"statusCode\":\"201\",\"requestTime\":\"2024-12-20T07:08:42.417937061\",\"time\":1734678522417}"
"{\"traceId\":\"d2863f62-9987-460e-bf40-53a17c67d126\",\"memberId\":\"524\",\"clientIp\":\"222.106.254.196\",\"url\":\"http://tr-sv-1:9090/api/v1/posts\",\"method\":\"GET\",\"request\":\"\",\"response\":\"{\\\"content\\\":[{\\\"id\\\":1777,\\\"title\\\":\\\"트리플 버퍼 웹 사용 가능 인코딩\\\",\\\"content\\\":\\\"다양한 교훈적 예산 관리 공개 키 해답 기반 엑스트라넷 최적화된 요약 아키텍쳐 공개 아키텍쳐 취약점 프로토콜 선택적 실시간 성공\\\",\\\"groupId\\\":162,\\\"type\\\":\\\"COMMON\\\",\\\"writer\\\":\\\"이영일\\\",\\\"writerProfile\\\":null,\\\"createTime\\\":\\\"2024-12-20T07:08:42.414889\\\",\\\"updateTime\\\":\\\"2024-12-20T07:08:42.414891\\\"},{\\\"id\\\":1579,\\\"title\\\":\\\"융합된 요약 엑스트라넷\\\",\\\"content\\\":\\\"더 작아진 무해한 마이그레이션 숙련된 확장 관리자 진보적인 환경 친화적 GUI 크로스 플랫폼 무관용 고객 만족 출판된 분리된 코어\\\",\\\"groupId\\\":162,\\\"type\\\":\\\"COMMON\\\",\\\"writer\\\":\\\"이영일\\\",\\\"writerProfile\\\":null,\\\"createTime\\\":\\\"2024-12-20T07:04:16.615245\\\",\\\"updateTime\\\":\\\"2024-12-20T07:04:16.615248\\\"},{\\\"id\\\":1578,\\\"title\\\":\\\"변경 가능한 비동기 태도\\\",\\\"content\\\":\\\"줄어든 헌신적 연합 융합된 보조 도전 중심이 중립형 마이그레이션 올바른 사이즈의 백그라운드 시간화 품질 중심의 범국가적 코어\\\",\\\"groupId\\\":162,\\\"type\\\":\\\"COMMON\\\",\\\"writer\\\":\\\"이영일\\\",\\\"writerProfile\\\":null,\\\"createTime\\\":\\\"2024-12-20T07:04:16.58637\\\",\\\"updateTime\\\":\\\"2024-12-20T07:04:16.586372\\\"},{\\\"id\\\":1439,\\\"title\\\":\\\"숙련된 잘 모듈화된 에뮬레이션\\\",\\\"content\\\":\\\"중심이 분석중인 제품 효율적인 분리형 인코딩 관리된 지역적 모니터링 리버스 엔지니어링된 방향 마이그레이션 확대된 휴대형 인터페이스\\\",\\\"groupId\\\":162,\\\"type\\\":\\\"COMMON\\\",\\\"writer\\\":\\\"이영일\\\",\\\"writerProfile\\\":null,\\\"createTime\\\":\\\"2024-12-20T07:01:05.716514\\\",\\\"updateTime\\\":\\\"2024-12-20T07:01:05.716519\\\"},{\\\"id\\\":1438,\\\"title\\\":\\\"가상 보조 LAN\\\",\\\"content\\\":\\\"강력한 컨텐츠 기반 환경 크로스 그룹 교훈적 융합 자동화된 확장 배열 오픈소스 결합된 포탈 미래가 보장된 4세대 하드웨어\\\",\\\"groupId\\\":162,\\\"type\\\":\\\"COMMON\\\",\\\"writer\\\":\\\"이영일\\\",\\\"writerProfile\\\":null,\\\"createTime\\\":\\\"2024-12-20T07:01:05.688658\\\",\\\"updateTime\\\":\\\"2024-12-20T07:01:05.688664\\\"},{\\\"id\\\":1437,\\\"title\\\":\\\"안정적인 백그라운드 전략\\\",\\\"content\\\":\\\"미래가 보장된 클라이언트 단 우연성 효율적인 분리형 코어 최적화된 24시간 펌웨어 무결점의 국가적 고객 만족 다용도 결합된 제품\\\",\\\"groupId\\\":162,\\\"type\\\":\\\"COMMON\\\",\\\"writer\\\":\\\"이영일\\\",\\\"writerProfile\\\":null,\\\"createTime\\\":\\\"2024-12-20T07:01:05.659372\\\",\\\"updateTime\\\":\\\"2024-12-20T07:01:05.659377\\\"},{\\\"id\\\":1353,\\\"title\\\":\\\"반동적인 무관리 패러다임\\\",\\\"content\\\":\\\"독보적인 인간자원 엔진 최전방 다이나믹 벤치마크 자동화된 다이나믹 웹 사이트 변경 가능한 취약점 전략 조직화된 헌신적 서비스 창구\\\",\\\"groupId\\\":162,\\\"type\\\":\\\"COMMON\\\",\\\"writer\\\":\\\"박상현\\\",\\\"writerProfile\\\":null,\\\"createTime\\\":\\\"2024-12-20T06:59:51.864082\\\",\\\"updateTime\\\":\\\"2024-12-20T06:59:51.864086\\\"},{\\\"id\\\":1352,\\\"title\\\":\\\"특별한 웹 사용 가능 미들웨어\\\",\\\"content\\\":\\\"완벽히 설정된 비동기 미디어 정보 함수 기반의 결정 모델 프로그래밍 가능한 근본적 예보 비즈니스 중점적 다중 상태 LAN 리버스 엔지니어링된 글로벌 설치과정\\\",\\\"groupId\\\":162,\\\"type\\\":\\\"COMMON\\\",\\\"writer\\\":\\\"박상현\\\",\\\"writerProfile\\\":null,\\\"createTime\\\":\\\"2024-12-20T06:59:51.835623\\\",\\\"updateTime\\\":\\\"2024-12-20T06:59:51.835628\\\"},{\\\"id\\\":1351,\\\"title\\\":\\\"공개 아키텍쳐 분리된 우연성\\\",\\\"content\\\":\\\"융합된 웹 사용 가능 미디어 정보 융합된 비동기 하드웨어 객체 기반의 하이브리드 예보 조직화된 수요 중심 계층 품질 중심의 백그라운드 아카이브\\\",\\\"groupId\\\":162,\\\"type\\\":\\\"COMMON\\\",\\\"writer\\\":\\\"박상현\\\",\\\"writerProfile\\\":null,\\\"createTime\\\":\\\"2024-12-20T06:59:51.795761\\\",\\\"updateTime\\\":\\\"2024-12-20T06:59:51.795767\\\"},{\\\"id\\\":1042,\\\"title\\\":\\\"중심이 모듈형 인공지능\\\",\\\"content\\\":\\\"안정적인 필수 도전 디지털화된 웹 사용 가능 연합 조절 가능한 필수 그룹웨어 비전 있는 실행 서비스 창구 안전한 6세대 미디어 정보\\\",\\\"groupId\\\":162,\\\"type\\\":\\\"COMMON\\\",\\\"writer\\\":\\\"박상현\\\",\\\"writerProfile\\\":null,\\\"createTime\\\":\\\"2024-12-20T06:52:17.795164\\\",\\\"updateTime\\\":\\\"2024-12-20T06:52:17.79517\\\"}],\\\"pageable\\\":{\\\"pageNumber\\\":0,\\\"pageSize\\\":10,\\\"sort\\\":{\\\"empty\\\":false,\\\"sorted\\\":true,\\\"unsorted\\\":false},\\\"offset\\\":0,\\\"paged\\\":true,\\\"unpaged\\\":false},\\\"totalElements\\\":25,\\\"totalPages\\\":3,\\\"last\\\":false,\\\"size\\\":10,\\\"number\\\":0,\\\"sort\\\":{\\\"empty\\\":false,\\\"sorted\\\":true,\\\"unsorted\\\":false},\\\"numberOfElements\\\":10,\\\"first\\\":true,\\\"empty\\\":false}\",\"statusCode\":\"200\",\"requestTime\":\"2024-12-20T07:08:42.443628089\",\"time\":1734678522443}"
"{\"traceId\":\"dda85778-3d85-4feb-ba26-a4ff88c864f8\",\"memberId\":\"524\",\"clientIp\":\"222.106.254.196\",\"url\":\"http://tr-sv-1:9090/api/v1/postComment\",\"method\":\"POST\",\"request\":\"{\\\"memberId\\\": 524, \\\"groupId\\\": 162, \\\"postId\\\": 1777, \\\"content\\\": \\\"\\\\uc7ac\\\\uc815\\\\ub82c \\\\ubaa8\\\\ub4c8\\\\ud615 \\\\ub9c8\\\\uc774\\\\uadf8\\\\ub808\\\\uc774\\\\uc158 \\\\uc6d0\\\\ud65c\\\\ud55c \\\\ube44\\\\ub3d9\\\\uae30 \\\\uc811\\\\uadfc\\\"}\",\"response\":\"{\\\"message\\\":\\\"댓글 추가 완료\\\",\\\"postId\\\":872}\",\"statusCode\":\"201\",\"requestTime\":\"2024-12-20T07:08:42.47119507\",\"time\":1734678522471}"
"{\"traceId\":\"c62d5dfe-8f03-4eb7-89c3-d47966b7e765\",\"memberId\":\"710\",\"clientIp\":\"222.106.254.196\",\"url\":\"http://tr-sv-1:9090/api/v1/group/my\",\"method\":\"GET\",\"request\":\"\",\"response\":\"{\\\"content\\\":[],\\\"pageable\\\":{\\\"pageNumber\\\":0,\\\"pageSize\\\":10,\\\"sort\\\":{\\\"empty\\\":true,\\\"sorted\\\":false,\\\"unsorted\\\":true},\\\"offset\\\":0,\\\"paged\\\":true,\\\"unpaged\\\":false},\\\"totalElements\\\":0,\\\"totalPages\\\":0,\\\"last\\\":true,\\\"size\\\":10,\\\"number\\\":0,\\\"sort\\\":{\\\"empty\\\":true,\\\"sorted\\\":false,\\\"unsorted\\\":true},\\\"numberOfElements\\\":0,\\\"first\\\":true,\\\"empty\\\":true}\",\"statusCode\":\"200\",\"requestTime\":\"2024-12-20T07:08:43.583591788\",\"time\":1734678523583}"
"{\"traceId\":\"4b5be17e-5dc6-4873-80b8-a3d7f534f927\",\"memberId\":\"710\",\"clientIp\":\"222.106.254.196\",\"url\":\"http://tr-sv-1:9090/api/v1/group/my\",\"method\":\"GET\",\"request\":\"\",\"response\":\"{\\\"content\\\":[],\\\"pageable\\\":{\\\"pageNumber\\\":0,\\\"pageSize\\\":10,\\\"sort\\\":{\\\"empty\\\":true,\\\"sorted\\\":false,\\\"unsorted\\\":true},\\\"offset\\\":0,\\\"paged\\\":true,\\\"unpaged\\\":false},\\\"totalElements\\\":0,\\\"totalPages\\\":0,\\\"last\\\":true,\\\"size\\\":10,\\\"number\\\":0,\\\"sort\\\":{\\\"empty\\\":true,\\\"sorted\\\":false,\\\"unsorted\\\":true},\\\"numberOfElements\\\":0,\\\"first\\\":true,\\\"empty\\\":true}\",\"statusCode\":\"200\",\"requestTime\":\"2024-12-20T07:08:43.608808997\",\"time\":1734678523608}"
"{\"traceId\":\"abdbde89-ad09-4bd6-8f4d-934281326bac\",\"memberId\":\"494\",\"clientIp\":\"222.106.254.196\",\"url\":\"http://tr-sv-1:9090/api/v1/group/my\",\"method\":\"GET\",\"request\":\"\",\"response\":\"{\\\"content\\\":[{\\\"id\\\":1,\\\"groupName\\\":\\\"플레이데이터 코테모임\\\",\\\"groupMemberCount\\\":6,\\\"groupOwnerId\\\":1,\\\"description\\\":\\\"PCCE, PCCP 준비 합시다\\\",\\\"categories\\\":[{\\\"id\\\":77,\\\"name\\\":\\\"학교\\\",\\\"depth\\\":2},{\\\"id\\\":72,\\\"name\\\":\\\"도서관\\\",\\\"depth\\\":2}],\\\"members\\\":[{\\\"id\\\":1,\\\"name\\\":\\\"이정훈\\\",\\\"email\\\":\\\"ukidd002@gmail.com\\\",\\\"profileImage\\\":\\\"https://tripcok.s3.ap-northeast-2.amazonaws.com/user/profile/0cadb7b4-9769-4645-81eb-973254992e61_profile-image.jpg\\\"},{\\\"id\\\":7,\\\"name\\\":\\\"이정훈\\\",\\\"email\\\":\\\"leshgi2447@naver.com\\\",\\\"profileImage\\\":null},{\\\"id\\\":4,\\\"name\\\":\\\"김령래쿤\\\",\\\"email\\\":\\\"lsiwh32749@gmail.com\\\",\\\"profileImage\\\":null},{\\\"id\\\":6,\\\"name\\\":\\\"최하람\\\",\\\"email\\\":\\\"haram8274@gmail.com\\\",\\\"profileImage\\\":\\\"https://tripcok.s3.ap-northeast-2.amazonaws.com/user/profile/eeb97879-860b-43bb-8ded-1e1a741b20d3_profile-image.jpg\\\"},{\\\"id\\\":9,\\\"name\\\":\\\"김망지\\\",\\\"email\\\":\\\"mang.gee97@gmail.com\\\",\\\"profileImage\\\":\\\"https://tripcok.s3.ap-northeast-2.amazonaws.com/user/profile/5d863a04-c8dd-4a58-b8e2-c268cce7e7fd_profile-image.jpg\\\"},{\\\"id\\\":494,\\\"name\\\":\\\"류상현\\\",\\\"email\\\":\\\"ujin40@example.org\\\",\\\"profileImage\\\":null}],\\\"createTime\\\":null,\\\"updateTime\\\":null,\\\"recruiting\\\":true},{\\\"id\\\":270,\\\"groupName\\\":\\\"(유) 김김이\\\",\\\"groupMemberCount\\\":2,\\\"groupOwnerId\\\":494,\\\"description\\\":\\\"다양한 중립형 시간화\\\",\\\"categories\\\":[{\\\"id\\\":168,\\\"name\\\":\\\"백화점\\\",\\\"depth\\\":2},{\\\"id\\\":23,\\\"name\\\":\\\"기암괴석\\\",\\\"depth\\\":2}],\\\"members\\\":[{\\\"id\\\":494,\\\"name\\\":\\\"류상현\\\",\\\"email\\\":\\\"ujin40@example.org\\\",\\\"profileImage\\\":null},{\\\"id\\\":564,\\\"name\\\":\\\"남현우\\\",\\\"email\\\":\\\"gyeongsug70@example.org\\\",\\\"profileImage\\\":null}],\\\"createTime\\\":null,\\\"updateTime\\\":null,\\\"recruiting\\\":true}],\\\"pageable\\\":{\\\"pageNumber\\\":0,\\\"pageSize\\\":10,\\\"sort\\\":{\\\"empty\\\":true,\\\"sorted\\\":false,\\\"unsorted\\\":true},\\\"offset\\\":0,\\\"paged\\\":true,\\\"unpaged\\\":false},\\\"totalElements\\\":2,\\\"totalPages\\\":1,\\\"last\\\":true,\\\"size\\\":10,\\\"number\\\":0,\\\"sort\\\":{\\\"empty\\\":true,\\\"sorted\\\":false,\\\"unsorted\\\":true},\\\"numberOfElements\\\":2,\\\"first\\\":true,\\\"empty\\\":false}\",\"statusCode\":\"200\",\"requestTime\":\"2024-12-20T07:08:44.724114026\",\"time\":1734678524724}"
"{\"traceId\":\"d7a6cf43-b211-4c41-ac6d-71af6ae48b35\",\"memberId\":\"494\",\"clientIp\":\"222.106.254.196\",\"url\":\"http://tr-sv-1:9090/api/v1/group/my\",\"method\":\"GET\",\"request\":\"\",\"response\":\"{\\\"content\\\":[{\\\"id\\\":1,\\\"groupName\\\":\\\"플레이데이터 코테모임\\\",\\\"groupMemberCount\\\":6,\\\"groupOwnerId\\\":1,\\\"description\\\":\\\"PCCE, PCCP 준비 합시다\\\",\\\"categories\\\":[{\\\"id\\\":77,\\\"name\\\":\\\"학교\\\",\\\"depth\\\":2},{\\\"id\\\":72,\\\"name\\\":\\\"도서관\\\",\\\"depth\\\":2}],\\\"members\\\":[{\\\"id\\\":1,\\\"name\\\":\\\"이정훈\\\",\\\"email\\\":\\\"ukidd002@gmail.com\\\",\\\"profileImage\\\":\\\"https://tripcok.s3.ap-northeast-2.amazonaws.com/user/profile/0cadb7b4-9769-4645-81eb-973254992e61_profile-image.jpg\\\"},{\\\"id\\\":7,\\\"name\\\":\\\"이정훈\\\",\\\"email\\\":\\\"leshgi2447@naver.com\\\",\\\"profileImage\\\":null},{\\\"id\\\":4,\\\"name\\\":\\\"김령래쿤\\\",\\\"email\\\":\\\"lsiwh32749@gmail.com\\\",\\\"profileImage\\\":null},{\\\"id\\\":6,\\\"name\\\":\\\"최하람\\\",\\\"email\\\":\\\"haram8274@gmail.com\\\",\\\"profileImage\\\":\\\"https://tripcok.s3.ap-northeast-2.amazonaws.com/user/profile/eeb97879-860b-43bb-8ded-1e1a741b20d3_profile-image.jpg\\\"},{\\\"id\\\":9,\\\"name\\\":\\\"김망지\\\",\\\"email\\\":\\\"mang.gee97@gmail.com\\\",\\\"profileImage\\\":\\\"https://tripcok.s3.ap-northeast-2.amazonaws.com/user/profile/5d863a04-c8dd-4a58-b8e2-c268cce7e7fd_profile-image.jpg\\\"},{\\\"id\\\":494,\\\"name\\\":\\\"류상현\\\",\\\"email\\\":\\\"ujin40@example.org\\\",\\\"profileImage\\\":null}],\\\"createTime\\\":null,\\\"updateTime\\\":null,\\\"recruiting\\\":true},{\\\"id\\\":270,\\\"groupName\\\":\\\"(유) 김김이\\\",\\\"groupMemberCount\\\":2,\\\"groupOwnerId\\\":494,\\\"description\\\":\\\"다양한 중립형 시간화\\\",\\\"categories\\\":[{\\\"id\\\":168,\\\"name\\\":\\\"백화점\\\",\\\"depth\\\":2},{\\\"id\\\":23,\\\"name\\\":\\\"기암괴석\\\",\\\"depth\\\":2}],\\\"members\\\":[{\\\"id\\\":494,\\\"name\\\":\\\"류상현\\\",\\\"email\\\":\\\"ujin40@example.org\\\",\\\"profileImage\\\":null},{\\\"id\\\":564,\\\"name\\\":\\\"남현우\\\",\\\"email\\\":\\\"gyeongsug70@example.org\\\",\\\"profileImage\\\":null}],\\\"createTime\\\":null,\\\"updateTime\\\":null,\\\"recruiting\\\":true}],\\\"pageable\\\":{\\\"pageNumber\\\":0,\\\"pageSize\\\":10,\\\"sort\\\":{\\\"empty\\\":true,\\\"sorted\\\":false,\\\"unsorted\\\":true},\\\"offset\\\":0,\\\"paged\\\":true,\\\"unpaged\\\":false},\\\"totalElements\\\":2,\\\"totalPages\\\":1,\\\"last\\\":true,\\\"size\\\":10,\\\"number\\\":0,\\\"sort\\\":{\\\"empty\\\":true,\\\"sorted\\\":false,\\\"unsorted\\\":true},\\\"numberOfElements\\\":2,\\\"first\\\":true,\\\"empty\\\":false}\",\"statusCode\":\"200\",\"requestTime\":\"2024-12-20T07:08:44.757026959\",\"time\":1734678524757}"
"{\"traceId\":\"ae774672-2115-4993-9648-12d870a6ba9b\",\"memberId\":\"494\",\"clientIp\":\"222.106.254.196\",\"url\":\"http://tr-sv-1:9090/api/v1/posts\",\"method\":\"GET\",\"request\":\"\",\"response\":\"{\\\"content\\\":[{\\\"id\\\":1718,\\\"title\\\":\\\"설정 가능한 근본적 엑스트라넷\\\",\\\"content\\\":\\\"수익에 중점을 둔 해답 기반 마이그레이션 완벽히 설정된 보조 프로토콜 더 커진 중립형 LAN 출판된 근본적 환경 디지털화된 수요 중심 인트라넷\\\",\\\"groupId\\\":1,\\\"type\\\":\\\"COMMON\\\",\\\"writer\\\":\\\"김령래쿤\\\",\\\"writerProfile\\\":null,\\\"createTime\\\":\\\"2024-12-20T07:07:33.142598\\\",\\\"updateTime\\\":\\\"2024-12-20T07:07:33.1426\\\"},{\\\"id\\\":1666,\\\"title\\\":\\\"최전방 밀착 우연성\\\",\\\"content\\\":\\\"최전방 확장 프로토콜 멀티 레이어 하이브리드 엑스트라넷 프로그래밍 가능한 취약점 안내 창구 자동화된 요약 고객 만족 크로스 그룹 헌신적 마이그레이션\\\",\\\"groupId\\\":1,\\\"type\\\":\\\"COMMON\\\",\\\"writer\\\":\\\"류상현\\\",\\\"writerProfile\\\":null,\\\"createTime\\\":\\\"2024-12-20T07:06:30.55368\\\",\\\"updateTime\\\":\\\"2024-12-20T07:06:30.553682\\\"},{\\\"id\\\":1504,\\\"title\\\":\\\"융합된 국가적 설치과정\\\",\\\"content\\\":\\\"멀티 레이어 휴대형 생산 능력 공개 키 결정 고객 만족 업그레이드 가능한 헌신적 패러다임 안정적인 무해한 환경 사용자 중심의 휴리스틱 제품\\\",\\\"groupId\\\":1,\\\"type\\\":\\\"COMMON\\\",\\\"writer\\\":\\\"최하람\\\",\\\"writerProfile\\\":\\\"https://tripcok.s3.ap-northeast-2.amazonaws.com/user/profile/eeb97879-860b-43bb-8ded-1e1a741b20d3_profile-image.jpg\\\",\\\"createTime\\\":\\\"2024-12-20T07:02:28.090658\\\",\\\"updateTime\\\":\\\"2024-12-20T07:02:28.090661\\\"},{\\\"id\\\":1503,\\\"title\\\":\\\"프로그래밍 가능한 클라이언트-서버 융합\\\",\\\"content\\\":\\\"크로스 플랫폼 멀티미디어 암호화 크로스 그룹 분리된 프로젝트 다양한 장거리 표준 1:1 분리형 모니터링 인체 공학적인 정적 엔진\\\",\\\"groupId\\\":1,\\\"type\\\":\\\"COMMON\\\",\\\"writer\\\":\\\"최하람\\\",\\\"writerProfile\\\":\\\"https://tripcok.s3.ap-northeast-2.amazonaws.com/user/profile/eeb97879-860b-43bb-8ded-1e1a741b20d3_profile-image.jpg\\\",\\\"createTime\\\":\\\"2024-12-20T07:02:28.062461\\\",\\\"updateTime\\\":\\\"2024-12-20T07:02:28.062464\\\"},{\\\"id\\\":1502,\\\"title\\\":\\\"더 작아진 방향 배열\\\",\\\"content\\\":\\\"조절 가능한 무관용 컨셉 공개 키 중립형 포탈 멀티 채널 고단계 표준 자동화된 안정적 LAN 인체 공학적인 글로벌 암호화\\\",\\\"groupId\\\":1,\\\"type\\\":\\\"COMMON\\\",\\\"writer\\\":\\\"최하람\\\",\\\"writerProfile\\\":\\\"https://tripcok.s3.ap-northeast-2.amazonaws.com/user/profile/eeb97879-860b-43bb-8ded-1e1a741b20d3_profile-image.jpg\\\",\\\"createTime\\\":\\\"2024-12-20T07:02:28.037034\\\",\\\"updateTime\\\":\\\"2024-12-20T07:02:28.037036\\\"},{\\\"id\\\":149,\\\"title\\\":\\\"공유 가능한 분리형 접근\\\",\\\"content\\\":\\\"확장된 무해한 그룹웨어 비전 있는 역수 데이터베이스 특별한 24시간 지식 기반 융합된 다중 상태 어플리케이션 유기농 무해한 태도\\\",\\\"groupId\\\":1,\\\"type\\\":\\\"COMMON\\\",\\\"writer\\\":\\\"김망지\\\",\\\"writerProfile\\\":\\\"https://tripcok.s3.ap-northeast-2.amazonaws.com/user/profile/5d863a04-c8dd-4a58-b8e2-c268cce7e7fd_profile-image.jpg\\\",\\\"createTime\\\":\\\"2024-12-20T06:32:22.708481\\\",\\\"updateTime\\\":\\\"2024-12-20T06:32:22.70849\\\"},{\\\"id\\\":148,\\\"title\\\":\\\"공유 가능한 합성물 LAN\\\",\\\"content\\\":\\\"강력한 클라이언트 단 계층 독보적인 무해한 어댑터 공개 키 클라이언트 단 아카이브 더 커진 실행 알고리즘 융합된 취약점 유연성\\\",\\\"groupId\\\":1,\\\"type\\\":\\\"COMMON\\\",\\\"writer\\\":\\\"김망지\\\",\\\"writerProfile\\\":\\\"https://tripcok.s3.ap-northeast-2.amazonaws.com/user/profile/5d863a04-c8dd-4a58-b8e2-c268cce7e7fd_profile-image.jpg\\\",\\\"createTime\\\":\\\"2024-12-20T06:32:22.6806\\\",\\\"updateTime\\\":\\\"2024-12-20T06:32:22.680604\\\"},{\\\"id\\\":147,\\\"title\\\":\\\"출판된 교훈적 모니터링\\\",\\\"content\\\":\\\"디지털화된 장거리 마이그레이션 멀티 레이어 분리형 환경 1:1 상황에 맞는 프레임 조직화된 분석중인 표준 더 커진 24시간 LAN\\\",\\\"groupId\\\":1,\\\"type\\\":\\\"COMMON\\\",\\\"writer\\\":\\\"김망지\\\",\\\"writerProfile\\\":\\\"https://tripcok.s3.ap-northeast-2.amazonaws.com/user/profile/5d863a04-c8dd-4a58-b8e2-c268cce7e7fd_profile-image.jpg\\\",\\\"createTime\\\":\\\"2024-12-20T06:32:22.652172\\\",\\\"updateTime\\\":\\\"2024-12-20T06:32:22.652177\\\"},{\\\"id\\\":1,\\\"title\\\":\\\"오늘은 5문제\\\",\\\"content\\\":\\\"남부터미널 스타벅스에서 만나요\\\",\\\"groupId\\\":1,\\\"type\\\":\\\"COMMON\\\",\\\"writer\\\":\\\"이정훈\\\",\\\"writerProfile\\\":\\\"https://tripcok.s3.ap-northeast-2.amazonaws.com/user/profile/0cadb7b4-9769-4645-81eb-973254992e61_profile-image.jpg\\\",\\\"createTime\\\":\\\"2024-12-12T22:53:14.208499\\\",\\\"updateTime\\\":\\\"2024-12-12T22:53:14.208516\\\"}],\\\"pageable\\\":{\\\"pageNumber\\\":0,\\\"pageSize\\\":10,\\\"sort\\\":{\\\"empty\\\":false,\\\"sorted\\\":true,\\\"unsorted\\\":false},\\\"offset\\\":0,\\\"paged\\\":true,\\\"unpaged\\\":false},\\\"totalElements\\\":9,\\\"totalPages\\\":1,\\\"last\\\":true,\\\"size\\\":10,\\\"number\\\":0,\\\"sort\\\":{\\\"empty\\\":false,\\\"sorted\\\":true,\\\"unsorted\\\":false},\\\"numberOfElements\\\":9,\\\"first\\\":true,\\\"empty\\\":false}\",\"statusCode\":\"200\",\"requestTime\":\"2024-12-20T07:08:44.785968155\",\"time\":1734678524785}"
"{\"traceId\":\"18169441-0d71-4f42-9cd9-7f3bcca44547\",\"memberId\":\"494\",\"clientIp\":\"222.106.254.196\",\"url\":\"http://tr-sv-1:9090/api/v1/group/post\",\"method\":\"POST\",\"request\":\"{\\\"title\\\": \\\"\\\\ub2e4\\\\uc6a9\\\\ub3c4 \\\\ubb3c\\\\ub958 \\\\uadf8\\\\ub8f9\\\\uc6e8\\\\uc5b4\\\", \\\"content\\\": \\\"\\\\ub2e4\\\\uc911 \\\\uc8fc\\\\ud30c\\\\uc218 \\\\ubcf4\\\\uc870 \\\\uc6f9 \\\\uc0ac\\\\uc774\\\\ud2b8 \\\\ubbf8\\\\ub798\\\\uac00 \\\\ubcf4\\\\uc7a5\\\\ub41c \\\\ud5cc\\\\uc2e0\\\\uc801 \\\\uad6c\\\\uc870\\\\uccb4 \\\\ub514\\\\uc9c0\\\\ud138\\\\ud654\\\\ub41c \\\\ubc29\\\\ud5a5 \\\\uc548\\\\ub0b4 \\\\ucc3d\\\\uad6c \\\\uc548\\\\uc804\\\\ud55c 3\\\\uc138\\\\ub300 \\\\uadf8\\\\ub798\\\\ud53d \\\\uc778\\\\ud130\\\\ud398\\\\uc774\\\\uc2a4 \\\\uacf5\\\\uc720 \\\\uac00\\\\ub2a5\\\\ud55c \\\\uacb0\\\\uc815 \\\\ud68c\\\\ub85c\\\", \\\"type\\\": \\\"COMMON\\\"}\",\"response\":\"{\\\"message\\\":\\\"게시글 추가 완료\\\",\\\"postId\\\":1778,\\\"type\\\":\\\"COMMON\\\"}\",\"statusCode\":\"201\",\"requestTime\":\"2024-12-20T07:08:44.814609542\",\"time\":1734678524814}"
"{\"traceId\":\"69a68a02-69b5-42f3-a280-3451e33e5b85\",\"memberId\":\"494\",\"clientIp\":\"222.106.254.196\",\"url\":\"http://tr-sv-1:9090/api/v1/group/post\",\"method\":\"POST\",\"request\":\"{\\\"title\\\": \\\"\\\\ucd5c\\\\uc801\\\\ud654\\\\ub41c \\\\uba40\\\\ud2f0 \\\\ud0dc\\\\uc2a4\\\\ud0b9 \\\\uadf8\\\\ub8f9\\\\uc6e8\\\\uc5b4\\\", \\\"content\\\": \\\"\\\\uba40\\\\ud2f0 \\\\ucc44\\\\ub110 \\\\uc798 \\\\ubaa8\\\\ub4c8\\\\ud654\\\\ub41c \\\\ud504\\\\ub808\\\\uc784 \\\\uc735\\\\ud569\\\\ub41c \\\\ubb34\\\\uad00\\\\ub9ac \\\\uc5d4\\\\uc9c4 \\\\uc548\\\\uc815\\\\uc801\\\\uc778 \\\\uc911\\\\ub9bd\\\\ud615 \\\\ud45c\\\\uc900 \\\\uc624\\\\ud508\\\\uc18c\\\\uc2a4 \\\\uc791\\\\ub3d9 \\\\uc778\\\\ud130\\\\ud398\\\\uc774\\\\uc2a4 \\\\ub2e4\\\\uc6a9\\\\ub3c4 \\\\ube44\\\\ub300\\\\uce6d \\\\ub370\\\\uc774\\\\ud130\\\\ubca0\\\\uc774\\\\uc2a4\\\", \\\"type\\\": \\\"COMMON\\\"}\",\"response\":\"{\\\"message\\\":\\\"게시글 추가 완료\\\",\\\"postId\\\":1779,\\\"type\\\":\\\"COMMON\\\"}\",\"statusCode\":\"201\",\"requestTime\":\"2024-12-20T07:08:44.870225231\",\"time\":1734678524870}"
"{\"traceId\":\"cb818bbe-7f48-4e6c-b86b-4bdbcb589646\",\"memberId\":\"494\",\"clientIp\":\"222.106.254.196\",\"url\":\"http://tr-sv-1:9090/api/v1/group/post\",\"method\":\"POST\",\"request\":\"{\\\"title\\\": \\\"\\\\uc624\\\\ud508\\\\uc18c\\\\uc2a4 \\\\uc548\\\\uc815\\\\uc801 \\\\ub370\\\\uc774\\\\ud130\\\\ubca0\\\\uc774\\\\uc2a4\\\", \\\"content\\\": \\\"\\\\ub2e4\\\\uc911 \\\\uc8fc\\\\ud30c\\\\uc218 \\\\ubb38\\\\ub9e5 \\\\uae30\\\\ubc18 \\\\uc124\\\\uce58\\\\uacfc\\\\uc815 \\\\ub2e4\\\\uc591\\\\ud55c \\\\ubc31\\\\uadf8\\\\ub77c\\\\uc6b4\\\\ub4dc \\\\ud558\\\\ub4dc\\\\uc6e8\\\\uc5b4 \\\\uac00\\\\uc0c1 \\\\ucde8\\\\uc57d\\\\uc810 \\\\uacf5\\\\uac1c \\\\uc2dc\\\\uc2a4\\\\ud15c \\\\uc720\\\\uc800 \\\\uce5c\\\\ud654\\\\uc801 \\\\ubc94\\\\uad6d\\\\uac00\\\\uc801 GUI \\\\ubcf5\\\\uc81c\\\\ub41c \\\\uace0\\\\ub2e8\\\\uacc4 \\\\ubca4\\\\uce58\\\\ub9c8\\\\ud06c\\\", \\\"type\\\": \\\"COMMON\\\"}\",\"response\":\"{\\\"message\\\":\\\"게시글 추가 완료\\\",\\\"postId\\\":1780,\\\"type\\\":\\\"COMMON\\\"}\",\"statusCode\":\"201\",\"requestTime\":\"2024-12-20T07:08:44.896144818\",\"time\":1734678524896}"
"{\"traceId\":\"35bdd4bc-5b72-40c3-b59a-10bf6b92f8b7\",\"memberId\":\"494\",\"clientIp\":\"222.106.254.196\",\"url\":\"http://tr-sv-1:9090/api/v1/posts\",\"method\":\"GET\",\"request\":\"\",\"response\":\"{\\\"content\\\":[{\\\"id\\\":1780,\\\"title\\\":\\\"오픈소스 안정적 데이터베이스\\\",\\\"content\\\":\\\"다중 주파수 문맥 기반 설치과정 다양한 백그라운드 하드웨어 가상 취약점 공개 시스템 유저 친화적 범국가적 GUI 복제된 고단계 벤치마크\\\",\\\"groupId\\\":1,\\\"type\\\":\\\"COMMON\\\",\\\"writer\\\":\\\"류상현\\\",\\\"writerProfile\\\":null,\\\"createTime\\\":\\\"2024-12-20T07:08:44.892943\\\",\\\"updateTime\\\":\\\"2024-12-20T07:08:44.892945\\\"},{\\\"id\\\":1779,\\\"title\\\":\\\"최적화된 멀티 태스킹 그룹웨어\\\",\\\"content\\\":\\\"멀티 채널 잘 모듈화된 프레임 융합된 무관리 엔진 안정적인 중립형 표준 오픈소스 작동 인터페이스 다용도 비대칭 데이터베이스\\\",\\\"groupId\\\":1,\\\"type\\\":\\\"COMMON\\\",\\\"writer\\\":\\\"류상현\\\",\\\"writerProfile\\\":null,\\\"createTime\\\":\\\"2024-12-20T07:08:44.866763\\\",\\\"updateTime\\\":\\\"2024-12-20T07:08:44.866765\\\"},{\\\"id\\\":1778,\\\"title\\\":\\\"다용도 물류 그룹웨어\\\",\\\"content\\\":\\\"다중 주파수 보조 웹 사이트 미래가 보장된 헌신적 구조체 디지털화된 방향 안내 창구 안전한 3세대 그래픽 인터페이스 공유 가능한 결정 회로\\\",\\\"groupId\\\":1,\\\"type\\\":\\\"COMMON\\\",\\\"writer\\\":\\\"류상현\\\",\\\"writerProfile\\\":null,\\\"createTime\\\":\\\"2024-12-20T07:08:44.811081\\\",\\\"updateTime\\\":\\\"2024-12-20T07:08:44.811084\\\"},{\\\"id\\\":1718,\\\"title\\\":\\\"설정 가능한 근본적 엑스트라넷\\\",\\\"content\\\":\\\"수익에 중점을 둔 해답 기반 마이그레이션 완벽히 설정된 보조 프로토콜 더 커진 중립형 LAN 출판된 근본적 환경 디지털화된 수요 중심 인트라넷\\\",\\\"groupId\\\":1,\\\"type\\\":\\\"COMMON\\\",\\\"writer\\\":\\\"김령래쿤\\\",\\\"writerProfile\\\":null,\\\"createTime\\\":\\\"2024-12-20T07:07:33.142598\\\",\\\"updateTime\\\":\\\"2024-12-20T07:07:33.1426\\\"},{\\\"id\\\":1666,\\\"title\\\":\\\"최전방 밀착 우연성\\\",\\\"content\\\":\\\"최전방 확장 프로토콜 멀티 레이어 하이브리드 엑스트라넷 프로그래밍 가능한 취약점 안내 창구 자동화된 요약 고객 만족 크로스 그룹 헌신적 마이그레이션\\\",\\\"groupId\\\":1,\\\"type\\\":\\\"COMMON\\\",\\\"writer\\\":\\\"류상현\\\",\\\"writerProfile\\\":null,\\\"createTime\\\":\\\"2024-12-20T07:06:30.55368\\\",\\\"updateTime\\\":\\\"2024-12-20T07:06:30.553682\\\"},{\\\"id\\\":1504,\\\"title\\\":\\\"융합된 국가적 설치과정\\\",\\\"content\\\":\\\"멀티 레이어 휴대형 생산 능력 공개 키 결정 고객 만족 업그레이드 가능한 헌신적 패러다임 안정적인 무해한 환경 사용자 중심의 휴리스틱 제품\\\",\\\"groupId\\\":1,\\\"type\\\":\\\"COMMON\\\",\\\"writer\\\":\\\"최하람\\\",\\\"writerProfile\\\":\\\"https://tripcok.s3.ap-northeast-2.amazonaws.com/user/profile/eeb97879-860b-43bb-8ded-1e1a741b20d3_profile-image.jpg\\\",\\\"createTime\\\":\\\"2024-12-20T07:02:28.090658\\\",\\\"updateTime\\\":\\\"2024-12-20T07:02:28.090661\\\"},{\\\"id\\\":1503,\\\"title\\\":\\\"프로그래밍 가능한 클라이언트-서버 융합\\\",\\\"content\\\":\\\"크로스 플랫폼 멀티미디어 암호화 크로스 그룹 분리된 프로젝트 다양한 장거리 표준 1:1 분리형 모니터링 인체 공학적인 정적 엔진\\\",\\\"groupId\\\":1,\\\"type\\\":\\\"COMMON\\\",\\\"writer\\\":\\\"최하람\\\",\\\"writerProfile\\\":\\\"https://tripcok.s3.ap-northeast-2.amazonaws.com/user/profile/eeb97879-860b-43bb-8ded-1e1a741b20d3_profile-image.jpg\\\",\\\"createTime\\\":\\\"2024-12-20T07:02:28.062461\\\",\\\"updateTime\\\":\\\"2024-12-20T07:02:28.062464\\\"},{\\\"id\\\":1502,\\\"title\\\":\\\"더 작아진 방향 배열\\\",\\\"content\\\":\\\"조절 가능한 무관용 컨셉 공개 키 중립형 포탈 멀티 채널 고단계 표준 자동화된 안정적 LAN 인체 공학적인 글로벌 암호화\\\",\\\"groupId\\\":1,\\\"type\\\":\\\"COMMON\\\",\\\"writer\\\":\\\"최하람\\\",\\\"writerProfile\\\":\\\"https://tripcok.s3.ap-northeast-2.amazonaws.com/user/profile/eeb97879-860b-43bb-8ded-1e1a741b20d3_profile-image.jpg\\\",\\\"createTime\\\":\\\"2024-12-20T07:02:28.037034\\\",\\\"updateTime\\\":\\\"2024-12-20T07:02:28.037036\\\"},{\\\"id\\\":149,\\\"title\\\":\\\"공유 가능한 분리형 접근\\\",\\\"content\\\":\\\"확장된 무해한 그룹웨어 비전 있는 역수 데이터베이스 특별한 24시간 지식 기반 융합된 다중 상태 어플리케이션 유기농 무해한 태도\\\",\\\"groupId\\\":1,\\\"type\\\":\\\"COMMON\\\",\\\"writer\\\":\\\"김망지\\\",\\\"writerProfile\\\":\\\"https://tripcok.s3.ap-northeast-2.amazonaws.com/user/profile/5d863a04-c8dd-4a58-b8e2-c268cce7e7fd_profile-image.jpg\\\",\\\"createTime\\\":\\\"2024-12-20T06:32:22.708481\\\",\\\"updateTime\\\":\\\"2024-12-20T06:32:22.70849\\\"},{\\\"id\\\":148,\\\"title\\\":\\\"공유 가능한 합성물 LAN\\\",\\\"content\\\":\\\"강력한 클라이언트 단 계층 독보적인 무해한 어댑터 공개 키 클라이언트 단 아카이브 더 커진 실행 알고리즘 융합된 취약점 유연성\\\",\\\"groupId\\\":1,\\\"type\\\":\\\"COMMON\\\",\\\"writer\\\":\\\"김망지\\\",\\\"writerProfile\\\":\\\"https://tripcok.s3.ap-northeast-2.amazonaws.com/user/profile/5d863a04-c8dd-4a58-b8e2-c268cce7e7fd_profile-image.jpg\\\",\\\"createTime\\\":\\\"2024-12-20T06:32:22.6806\\\",\\\"updateTime\\\":\\\"2024-12-20T06:32:22.680604\\\"}],\\\"pageable\\\":{\\\"pageNumber\\\":0,\\\"pageSize\\\":10,\\\"sort\\\":{\\\"empty\\\":false,\\\"sorted\\\":true,\\\"unsorted\\\":false},\\\"offset\\\":0,\\\"paged\\\":true,\\\"unpaged\\\":false},\\\"totalElements\\\":12,\\\"totalPages\\\":2,\\\"last\\\":false,\\\"size\\\":10,\\\"number\\\":0,\\\"sort\\\":{\\\"empty\\\":false,\\\"sorted\\\":true,\\\"unsorted\\\":false},\\\"numberOfElements\\\":10,\\\"first\\\":true,\\\"empty\\\":false}\",\"statusCode\":\"200\",\"requestTime\":\"2024-12-20T07:08:44.923031767\",\"time\":1734678524923}"
"{\"traceId\":\"4fb0b972-4ba3-4d4c-a851-80828da1750b\",\"memberId\":\"494\",\"clientIp\":\"222.106.254.196\",\"url\":\"http://tr-sv-1:9090/api/v1/postComment\",\"method\":\"POST\",\"request\":\"{\\\"memberId\\\": 494, \\\"groupId\\\": 1, \\\"postId\\\": 1778, \\\"content\\\": \\\"\\\\uc778\\\\uccb4 \\\\uacf5\\\\ud559\\\\uc801\\\\uc778 \\\\uc0c1\\\\ud669\\\\uc5d0 \\\\ub9de\\\\ub294 \\\\uad00\\\\ub9ac\\\\uc790 \\\\uc911\\\\uc2ec\\\\uc774 3\\\\uc138\\\\ub300 \\\\uc804\\\\ub7b5\\\"}\",\"response\":\"{\\\"message\\\":\\\"댓글 추가 완료\\\",\\\"postId\\\":873}\",\"statusCode\":\"201\",\"requestTime\":\"2024-12-20T07:08:44.955471568\",\"time\":1734678524955}"
